…
    ## `summarise()` has grouped output by 'county'. You can override using the
    ## `.groups` argument.

    ## # A tibble: 98 × 8
    ## # Groups:   county [51]
    ##    county        year  mean percentile25 median percentile75   min   max
    ##    <chr>        <dbl> <dbl>        <dbl>  <dbl>        <dbl> <dbl> <dbl>
    ##  1 Alameda       2004 11.1          6.02   8.95         12.8   1.4  49.6
    ##  2 Alameda       2019  7.34         4.4    6.5           9.4   0    29.3
    ##  3 Butte         2004 10.1          4.58   7.9          12     0.6  69  
    ##  4 Butte         2019  6.99         3.2    6             9     0    97.3
    ##  5 Calaveras     2004  7.61         5      7            10     1    24  
    ##  6 Calaveras     2019  5.46         3.7    5.2           6.8   0.7  24.8
    ##  7 Colusa        2004 10.0          4      7            13     0.6  44.6
    ##  8 Colusa        2019  6.61         3.88   5.8           8.2   0    27.5
    ##  9 Contra Costa  2004 12.8          5.45   8.6          17.4   2.1  73.7
    ## 10 Contra Costa  2019  7.20         4.5    6.4           9.1   0.3  35.9
    ## # … with 88 more rows
…
    ## `summarise()` has grouped output by 'site'. You can override using the
    ## `.groups` argument.

    ## # A tibble: 24 × 8
    ## # Groups:   site [16]
    ##    site                  year  mean percentile25 median percentile75   min   max
    ##    <chr>                <dbl> <dbl>        <dbl>  <dbl>        <dbl> <dbl> <dbl>
    ##  1 ""                    2004 19.9         13.1   16.3         23.3    5    60.7
    ##  2 "Azusa"               2004 18.4         10.9   16.2         21.7    2    75.6
    ##  3 "Azusa"               2019  9.69         5.1    9           12.7    1.4  70.3
    ##  4 "Burbank"             2004 19.2         12.1   16           21.6    4    60.1
    ##  5 "Compton"             2019 11.0          7.7   10.5         13      1.9  39.5
    ##  6 "Glendora"            2019 11.9          7.1   10.8         15.4    3.3  75.1
    ##  7 "Lancaster-Division…  2004  8.50         6      9           11      1    18  
    ##  8 "Lancaster-Division…  2019  6.19         3.8    6.4          8.3    0    13.6
    ##  9 "Lebec"               2004  4.14         2.1    3.7          5.95   0.1  12.8
    ## 10 "Lebec"               2019  3.15         1.58   2.75         4.03   0.2  10.4
    ## # … with 14 more rows
…
